[
  {
    "localeId": 1,
    "guidedCreatedIngredientStepTextAttributeId": 1,
    "text": "Place"
  },
  {
    "localeId": 1,
    "guidedCreatedIngredientStepTextAttributeId": 2,
    "text": "Add"
  },
  {
    "localeId": 1,
    "guidedCreatedIngredientStepTextAttributeId": 3,
    "text": "Weigh on top"
  },
  {
    "localeId": 2,
    "guidedCreatedIngredientStepTextAttributeId": 1,
    "text": "In den Mixtopf geben"
  },
  {
    "localeId": 2,
    "guidedCreatedIngredientStepTextAttributeId": 2,
    "text": "Zugeben"
  },
  {
    "localeId": 2,
    "guidedCreatedIngredientStepTextAttributeId": 3,
    "text": "Weigh on top (DE)"
  },
  {
    "localeId": 3,
    "guidedCreatedIngredientStepTextAttributeId": 1,
    "text": "Mettre"
  },
  {
    "localeId": 3,
    "guidedCreatedIngredientStepTextAttributeId": 2,
    "text": "Ajouter"
  },
  {
    "localeId": 3,
    "guidedCreatedIngredientStepTextAttributeId": 3,
    "text": "Weigh on top (FR)"
  },
  {
    "localeId": 4,
    "guidedCreatedIngredientStepTextAttributeId": 1,
    "text": "Ponga"
  },
  {
    "localeId": 4,
    "guidedCreatedIngredientStepTextAttributeId": 2,
    "text": "Añada"
  },
  {
    "localeId": 4,
    "guidedCreatedIngredientStepTextAttributeId": 3,
    "text": "Pese encima"
  }
]