[
  {
    "localeId": 1,
    "recipeDifficultyId": 1,
    "text": "easy"
  },
  {
    "localeId": 1,
    "recipeDifficultyId": 2,
    "text": "medium"
  },
  {
    "localeId": 1,
    "recipeDifficultyId": 3,
    "text": "advanced"
  },
  {
    "localeId": 1,
    "recipeDifficultyId": 4,
    "text": "no information"
  },
  {
    "localeId": 2,
    "recipeDifficultyId": 1,
    "text": "einfach"
  },
  {
    "localeId": 2,
    "recipeDifficultyId": 2,
    "text": "mittel"
  },
  {
    "localeId": 2,
    "recipeDifficultyId": 3,
    "text": "aufwendig"
  },
  {
    "localeId": 2,
    "recipeDifficultyId": 4,
    "text": "keine Information"
  },
  {
    "localeId": 3,
    "recipeDifficultyId": 1,
    "text": "Facile"
  },
  {
    "localeId": 3,
    "recipeDifficultyId": 2,
    "text": "Moyen"
  },
  {
    "localeId": 3,
    "recipeDifficultyId": 3,
    "text": "Difficile"
  },
  {
    "localeId": 3,
    "recipeDifficultyId": 4,
    "text": "Non renseigné"
  },
  {
    "localeId": 4,
    "recipeDifficultyId": 1,
    "text": "baja"
  },
  {
    "localeId": 4,
    "recipeDifficultyId": 2,
    "text": "media"
  },
  {
    "localeId": 4,
    "recipeDifficultyId": 3,
    "text": "alta"
  },
  {
    "localeId": 4,
    "recipeDifficultyId": 4,
    "text": "sin información"
  },
  {
    "localeId": 5,
    "recipeDifficultyId": 1,
    "text": "facile"
  },
  {
    "localeId": 5,
    "recipeDifficultyId": 2,
    "text": "medio"
  },
  {
    "localeId": 5,
    "recipeDifficultyId": 3,
    "text": "elevato"
  },
  {
    "localeId": 5,
    "recipeDifficultyId": 4,
    "text": "nessun valore"
  },
  {
    "localeId": 6,
    "recipeDifficultyId": 1,
    "text": "Fácil"
  },
  {
    "localeId": 6,
    "recipeDifficultyId": 2,
    "text": "Média"
  },
  {
    "localeId": 6,
    "recipeDifficultyId": 3,
    "text": "Difícil"
  },
  {
    "localeId": 6,
    "recipeDifficultyId": 4,
    "text": "Sem informação"
  },
  {
    "localeId": 7,
    "recipeDifficultyId": 1,
    "text": "łatwy"
  },
  {
    "localeId": 7,
    "recipeDifficultyId": 2,
    "text": "średni"
  },
  {
    "localeId": 7,
    "recipeDifficultyId": 3,
    "text": "trudny"
  },
  {
    "localeId": 7,
    "recipeDifficultyId": 4,
    "text": "brak informacji"
  },
  {
    "localeId": 8,
    "recipeDifficultyId": 1,
    "text": "Baja"
  },
  {
    "localeId": 8,
    "recipeDifficultyId": 2,
    "text": "Media"
  },
  {
    "localeId": 8,
    "recipeDifficultyId": 3,
    "text": "Alta"
  },
  {
    "localeId": 8,
    "recipeDifficultyId": 4,
    "text": "N/A"
  },
  {
    "localeId": 9,
    "recipeDifficultyId": 1,
    "text": "容易"
  },
  {
    "localeId": 9,
    "recipeDifficultyId": 2,
    "text": "中等"
  },
  {
    "localeId": 9,
    "recipeDifficultyId": 3,
    "text": "進階"
  },
  {
    "localeId": 9,
    "recipeDifficultyId": 4,
    "text": "無資訊"
  },
  {
    "localeId": 11,
    "recipeDifficultyId": 1,
    "text": "Просто"
  },
  {
    "localeId": 11,
    "recipeDifficultyId": 2,
    "text": "Средне"
  },
  {
    "localeId": 11,
    "recipeDifficultyId": 3,
    "text": "Сложно"
  },
  {
    "localeId": 11,
    "recipeDifficultyId": 4,
    "text": "нет информации"
  },
  {
    "localeId": 12,
    "recipeDifficultyId": 1,
    "text": "jednoduchá"
  },
  {
    "localeId": 12,
    "recipeDifficultyId": 2,
    "text": "střední"
  },
  {
    "localeId": 12,
    "recipeDifficultyId": 3,
    "text": "náročné"
  },
  {
    "localeId": 12,
    "recipeDifficultyId": 4,
    "text": "no information"
  },
  {
    "localeId": 13,
    "recipeDifficultyId": 1,
    "text": "easy"
  },
  {
    "localeId": 13,
    "recipeDifficultyId": 2,
    "text": "medium"
  },
  {
    "localeId": 13,
    "recipeDifficultyId": 3,
    "text": "advanced"
  },
  {
    "localeId": 13,
    "recipeDifficultyId": 4,
    "text": "no information"
  },
  {
    "localeId": 14,
    "recipeDifficultyId": 1,
    "text": "εύκολη"
  },
  {
    "localeId": 14,
    "recipeDifficultyId": 2,
    "text": "μέτρια"
  },
  {
    "localeId": 14,
    "recipeDifficultyId": 3,
    "text": "δύσκολη"
  },
  {
    "localeId": 14,
    "recipeDifficultyId": 4,
    "text": "καμιά πληροφορία"
  },
  {
    "localeId": 15,
    "recipeDifficultyId": 1,
    "text": "eenvoudig"
  },
  {
    "localeId": 15,
    "recipeDifficultyId": 2,
    "text": "middel"
  },
  {
    "localeId": 15,
    "recipeDifficultyId": 3,
    "text": "gevorderd"
  },
  {
    "localeId": 15,
    "recipeDifficultyId": 4,
    "text": "geen informatie"
  },
  {
    "localeId": 16,
    "recipeDifficultyId": 1,
    "text": "容易"
  },
  {
    "localeId": 16,
    "recipeDifficultyId": 2,
    "text": "中等"
  },
  {
    "localeId": 16,
    "recipeDifficultyId": 3,
    "text": "进阶"
  },
  {
    "localeId": 16,
    "recipeDifficultyId": 4,
    "text": "无资讯"
  },
  {
    "localeId": 17,
    "recipeDifficultyId": 1,
    "text": "easy"
  },
  {
    "localeId": 17,
    "recipeDifficultyId": 2,
    "text": "medium"
  },
  {
    "localeId": 17,
    "recipeDifficultyId": 3,
    "text": "advanced"
  },
  {
    "localeId": 17,
    "recipeDifficultyId": 4,
    "text": "no information"
  },
  {
    "localeId": 18,
    "recipeDifficultyId": 1,
    "text": "容易"
  },
  {
    "localeId": 18,
    "recipeDifficultyId": 2,
    "text": "中等"
  },
  {
    "localeId": 18,
    "recipeDifficultyId": 3,
    "text": "进阶"
  },
  {
    "localeId": 18,
    "recipeDifficultyId": 4,
    "text": "无资讯"
  },
  {
    "localeId": 19,
    "recipeDifficultyId": 1,
    "text": "einfach"
  },
  {
    "localeId": 19,
    "recipeDifficultyId": 2,
    "text": "mittel"
  },
  {
    "localeId": 19,
    "recipeDifficultyId": 3,
    "text": "aufwendig"
  },
  {
    "localeId": 19,
    "recipeDifficultyId": 4,
    "text": "keine Information"
  },
  {
    "localeId": 20,
    "recipeDifficultyId": 1,
    "text": "easy"
  },
  {
    "localeId": 20,
    "recipeDifficultyId": 2,
    "text": "medium"
  },
  {
    "localeId": 20,
    "recipeDifficultyId": 3,
    "text": "advanced"
  },
  {
    "localeId": 20,
    "recipeDifficultyId": 4,
    "text": "no information"
  },
  {
    "localeId": 21,
    "recipeDifficultyId": 1,
    "text": "łatwy"
  },
  {
    "localeId": 21,
    "recipeDifficultyId": 2,
    "text": "Média"
  },
  {
    "localeId": 21,
    "recipeDifficultyId": 3,
    "text": "Difícil"
  },
  {
    "localeId": 21,
    "recipeDifficultyId": 4,
    "text": "Sem informação"
  },
  {
    "localeId": 22,
    "recipeDifficultyId": 1,
    "text": "baja"
  },
  {
    "localeId": 22,
    "recipeDifficultyId": 2,
    "text": "media"
  },
  {
    "localeId": 22,
    "recipeDifficultyId": 3,
    "text": "alta"
  },
  {
    "localeId": 22,
    "recipeDifficultyId": 4,
    "text": "sin información"
  },
  {
    "localeId": 23,
    "recipeDifficultyId": 1,
    "text": "easy"
  },
  {
    "localeId": 23,
    "recipeDifficultyId": 2,
    "text": "medium"
  },
  {
    "localeId": 23,
    "recipeDifficultyId": 3,
    "text": "advanced"
  },
  {
    "localeId": 23,
    "recipeDifficultyId": 4,
    "text": "no information"
  },
  {
    "localeId": 30,
    "recipeDifficultyId": 1,
    "text": "easy"
  },
  {
    "localeId": 30,
    "recipeDifficultyId": 2,
    "text": "medium"
  },
  {
    "localeId": 30,
    "recipeDifficultyId": 3,
    "text": "advanced"
  },
  {
    "localeId": 30,
    "recipeDifficultyId": 4,
    "text": "no information"
  },
  {
    "localeId": 31,
    "recipeDifficultyId": 1,
    "text": "Facile"
  },
  {
    "localeId": 31,
    "recipeDifficultyId": 2,
    "text": "Moyen"
  },
  {
    "localeId": 31,
    "recipeDifficultyId": 3,
    "text": "Difficile"
  },
  {
    "localeId": 31,
    "recipeDifficultyId": 4,
    "text": "Non renseigné"
  },
  {
    "localeId": 32,
    "recipeDifficultyId": 1,
    "text": "Fácil"
  },
  {
    "localeId": 32,
    "recipeDifficultyId": 2,
    "text": "Média"
  },
  {
    "localeId": 32,
    "recipeDifficultyId": 3,
    "text": "Difícil"
  },
  {
    "localeId": 32,
    "recipeDifficultyId": 4,
    "text": "Sem informação"
  }
]